{"data":{"posts":{"edges":[{"node":{"id":"5c95c78b-1d09-5aec-a118-81210cae45db","excerpt":"Lorem ipsum dolor sit amet, consectetur adipiscing elit, sed do eiusmod tempor incididunt ut labore et dolore magna aliqua. Aenean vel elit…","frontmatter":{"title":"How to build this web site","date":"2019-03-08 15:00"},"fields":{"slug":"/blog/categories/development/posts/2019-03-08-15-00-how-to-build-this-web-site","category":{"name":"Development","slug":"/blog/categories/development"},"tags":[{"name":"React","slug":"/blog/tags/react"},{"name":"GatsbyJs","slug":"/blog/tags/gatsby-js"}]}}},{"node":{"id":"930fe400-6f39-56a4-b625-220d412fa5af","excerpt":"Lorem ipsum dolor sit amet, consectetur adipiscing elit, sed do eiusmod tempor incididunt ut labore et dolore magna aliqua. Aenean vel elit…","frontmatter":{"title":"Welcome to my web site","date":"2019-03-07 19:56"},"fields":{"slug":"/blog/categories/notice/posts/2019-03-07-19-56-welcome-to-my-web-site","category":{"name":"Notice","slug":"/blog/categories/notice"},"tags":[{"name":"Misc.","slug":"/blog/tags/misc"}]}}},{"node":{"id":"1ff5a19e-a658-582c-b938-1c5886067468","excerpt":"Lorem ipsum dolor sit amet, consectetur adipiscing elit, sed do eiusmod tempor incididunt ut labore et dolore magna aliqua. Aenean vel elit…","frontmatter":{"title":"Just-in-time health intervention for prevention of prolonged sedentary behavior","date":"2017-05-01T00:00:00.000Z"},"fields":{"slug":"/blog/categories/research/posts/2017-05-01-00-00-just-in-time-health-intervention-for-prevention-of-prolonged-sedentary-behavior","category":{"name":"Research","slug":"/blog/categories/research"},"tags":[{"name":"Just-in-time intervention","slug":"/blog/tags/just-in-time-intervention"},{"name":"Sedentariness","slug":"/blog/tags/sedentariness"}]}}},{"node":{"id":"bee0df4a-0408-5c14-89f2-a5673b43cd72","excerpt":"Lorem ipsum dolor sit amet, consectetur adipiscing elit, sed do eiusmod tempor incididunt ut labore et dolore magna aliqua. Aenean vel elit…","frontmatter":{"title":"Exploring user experiences for active workstations","date":"2015-06-01T00:00:00.000Z"},"fields":{"slug":"/blog/categories/research/posts/2015-06-01-00-00-exploring-user-experiences-for-active-workstations","category":{"name":"Research","slug":"/blog/categories/research"},"tags":[{"name":"Active workstation","slug":"/blog/tags/active-workstation"},{"name":"Under-desk elliptical trainer","slug":"/blog/tags/under-desk-elliptical-trainer"},{"name":"Office furniture","slug":"/blog/tags/office-furniture"}]}}},{"node":{"id":"58754b54-2f22-5e1c-a7f2-d45c25de4977","excerpt":"Lorem ipsum dolor sit amet, consectetur adipiscing elit, sed do eiusmod tempor incididunt ut labore et dolore magna aliqua. Aenean vel elit…","frontmatter":{"title":"Developing multi-player exertion games for group fitness swimming","date":"2014-04-01T00:00:00.000Z"},"fields":{"slug":"/blog/categories/research/posts/2014-04-01-00-00-developing-multi-player-exertion-games-for-group-fitness-swimming","category":{"name":"Research","slug":"/blog/categories/research"},"tags":[{"name":"Exergame","slug":"/blog/tags/exergame"},{"name":"Swimming","slug":"/blog/tags/swimming"},{"name":"Group fitness","slug":"/blog/tags/group-fitness"}]}}}]}},"pageContext":{"totalCount":6,"limit":5,"skip":0,"currentPage":1,"totalPage":2}}