{"componentChunkName":"component---src-templates-blog-list-category-page-tsx","path":"/blog","result":{"data":{"posts":{"edges":[{"node":{"id":"5c95c78b-1d09-5aec-a118-81210cae45db","excerpt":"Lorem ipsum dolor sit amet, consectetur adipiscing elit, sed do eiusmod tempor incididunt ut labore et dolore magna aliqua. Aenean vel elit scelerisque mauris pellentesque pulvinar pellentesque habitant morbi. At risus viverra adipiscing at in. Vitae et leo duis ut. Sit amet consectetur adipiscing elit duis tristique sollicitudin nibh. Quis vel eros donec ac…","frontmatter":{"title":"How to build this web site","date":"2019-03-08 15:00","preview":null},"fields":{"slug":"/blog/categories/development/posts/2019-03-08-15-00-how-to-build-this-web-site","category":{"name":"Development","slug":"/blog/categories/development"},"tags":[{"name":"React","slug":"/blog/tags/react"},{"name":"GatsbyJs","slug":"/blog/tags/gatsby-js"}]}}},{"node":{"id":"930fe400-6f39-56a4-b625-220d412fa5af","excerpt":"Lorem ipsum dolor sit amet, consectetur adipiscing elit, sed do eiusmod tempor incididunt ut labore et dolore magna aliqua. Aenean vel elit scelerisque mauris pellentesque pulvinar pellentesque habitant morbi. At risus viverra adipiscing at in. Vitae et leo duis ut. Sit amet consectetur adipiscing elit duis tristique sollicitudin nibh. Quis vel eros donec ac…","frontmatter":{"title":"Welcome to my web site","date":"2019-03-07 19:56","preview":null},"fields":{"slug":"/blog/categories/notice/posts/2019-03-07-19-56-welcome-to-my-web-site","category":{"name":"Notice","slug":"/blog/categories/notice"},"tags":[{"name":"Misc.","slug":"/blog/tags/misc"}]}}},{"node":{"id":"1ff5a19e-a658-582c-b938-1c5886067468","excerpt":"Even people perform a sufficient amount of physical activities, uninterrupted sedentary behavior would cause increased waist circumference. This work explores how to provide Just-in-Time support for prevention of prolonged sedentary behavior, including (1) when to deliver JIT support, and (2) how to tailor contents of the support.","frontmatter":{"title":"Just-in-time health intervention for prevention of prolonged sedentary behavior","date":"2017-05-01T00:00:00.000Z","preview":{"childImageSharp":{"resize":{"src":"/static/0aa6f3ef8ed9260de7d37909481761a1/e9c64/standup.png"}}}},"fields":{"slug":"/blog/categories/research/posts/2017-05-01-00-00-just-in-time-health-intervention-for-prevention-of-prolonged-sedentary-behavior","category":{"name":"Research","slug":"/blog/categories/research"},"tags":[{"name":"Just-in-time intervention","slug":"/blog/tags/just-in-time-intervention"},{"name":"Sedentariness","slug":"/blog/tags/sedentariness"}]}}},{"node":{"id":"bee0df4a-0408-5c14-89f2-a5673b43cd72","excerpt":"As prolonged sedentary behavior causes early mortality, there has been increasing interest in active workstations, which allow workers to simultaneously perform both office tasks and physical activities; but, it is unknown how office workers actually use in real world. This research is the first attempt to reveal user experiences for active workstations.","frontmatter":{"title":"Exploring user experiences for active workstations","date":"2015-06-01T00:00:00.000Z","preview":{"childImageSharp":{"resize":{"src":"/static/d0de286368f120df3a49380c2aa4e859/825f4/Choi2016Exploring.jpg"}}}},"fields":{"slug":"/blog/categories/research/posts/2015-06-01-00-00-exploring-user-experiences-for-active-workstations","category":{"name":"Research","slug":"/blog/categories/research"},"tags":[{"name":"Active workstation","slug":"/blog/tags/active-workstation"},{"name":"Under-desk elliptical trainer","slug":"/blog/tags/under-desk-elliptical-trainer"},{"name":"Office furniture","slug":"/blog/tags/office-furniture"}]}}},{"node":{"id":"58754b54-2f22-5e1c-a7f2-d45c25de4977","excerpt":"Group fitness is one of the most representative social exercises and includes any forms of fitness exercises performed by a group of people led by an instructor. By leveraging unique characteristics of group fitness, this work explores how to design social exergames which provide similar experience of group fitness to multiple people.","frontmatter":{"title":"Developing multi-player exertion games for group fitness swimming","date":"2014-04-01T00:00:00.000Z","preview":{"childImageSharp":{"resize":{"src":"/static/754c79c0fd44c81008ef49b845e20989/e9c64/Choi2016SwimTrain.png"}}}},"fields":{"slug":"/blog/categories/research/posts/2014-04-01-00-00-developing-multi-player-exertion-games-for-group-fitness-swimming","category":{"name":"Research","slug":"/blog/categories/research"},"tags":[{"name":"Exergame","slug":"/blog/tags/exergame"},{"name":"Swimming","slug":"/blog/tags/swimming"},{"name":"Group fitness","slug":"/blog/tags/group-fitness"}]}}}]}},"pageContext":{"isCreatedByStatefulCreatePages":false,"limit":5,"skip":0,"currentPage":1,"totalPage":2,"param":"*","totalCount":6}}}