{"data":{"posts":{"edges":[{"node":{"id":"5f186ab4-c39d-5e39-89c9-e692ff116141","excerpt":"Lorem ipsum dolor sit amet, consectetur adipiscing elit, sed do eiusmod tempor incididunt ut labore et dolore magna aliqua. Aenean vel elit…","frontmatter":{"title":"Developing multi-player exertion games for underwater environment","date":"2013-03-01T00:00:00.000Z"},"fields":{"slug":"/blog/categories/research/posts/2013-03-01-00-00-developing-multi-player-exertion-games-for-underwater-environment","category":{"name":"Research","slug":"/blog/categories/research"},"tags":[{"name":"Exergame","slug":"/blog/tags/exergame"},{"name":"Swimming","slug":"/blog/tags/swimming"},{"name":"Underwater network","slug":"/blog/tags/underwater-network"},{"name":"Activity recognition","slug":"/blog/tags/activity-recognition"}]}}}]}},"pageContext":{"totalCount":6,"limit":5,"skip":5,"currentPage":2,"totalPage":2}}