{"componentChunkName":"component---src-templates-blog-list-category-page-tsx","path":"/blog/pages/2","result":{"data":{"posts":{"edges":[{"node":{"id":"266fabde-37f5-5808-9e93-2920b1f0f435","excerpt":"Even though exertion-based games (or, exergame) are regarded as promising ways to promote physical activities, most of them has considered ground-based physical activities. To design exergames for water-based physical activities, there are many unique challenges, such as (1) underwater network communication, (2) swimming motion recognition, and (3) game…","frontmatter":{"title":"Developing multi-player exertion games for underwater environment","date":"2013-03-01T00:00:00.000Z","preview":{"childImageSharp":{"resize":{"src":"/static/33e726198e85811577a6b2cd963642b2/5a9a5/Choi2014MobyDick.png"}}}},"fields":{"slug":"/blog/categories/research/posts/2013-03-01-00-00-developing-multi-player-exertion-games-for-underwater-environment","category":{"name":"Research","slug":"/blog/categories/research"},"tags":[{"name":"Exergame","slug":"/blog/tags/exergame"},{"name":"Swimming","slug":"/blog/tags/swimming"},{"name":"Underwater network","slug":"/blog/tags/underwater-network"},{"name":"Activity recognition","slug":"/blog/tags/activity-recognition"}]}}}]}},"pageContext":{"limit":5,"skip":5,"currentPage":2,"totalPage":2,"param":"*","totalCount":6}},"staticQueryHashes":["1450361863","2890333836","3128451518","3836358870"]}