{"data":{"posts":{"edges":[{"node":{"id":"5f186ab4-c39d-5e39-89c9-e692ff116141","excerpt":"Motivation Lorem ipsum dolor sit amet, consectetur adipiscing elit, sed do eiusmod tempor incididunt ut labore et dolore magna aliqua. Aenean vel elit scelerisque mauris pellentesque pulvinar pellentesque habitant morbi. At risus viverra adipiscing at in. Vitae et leo duis ut. Sit amet consectetur adipiscing elit duis tristique sollicitudin nibh. Quis vel…","frontmatter":{"title":"Developing multi-player exertion games for underwater environment","date":"2013-03-01T00:00:00.000Z","preview":{"childImageSharp":{"resize":{"src":"/static/33e726198e85811577a6b2cd963642b2/799a8/Choi2014MobyDick.png"}}}},"fields":{"slug":"/blog/categories/research/posts/2013-03-01-00-00-developing-multi-player-exertion-games-for-underwater-environment","category":{"name":"Research","slug":"/blog/categories/research"},"tags":[{"name":"Exergame","slug":"/blog/tags/exergame"},{"name":"Swimming","slug":"/blog/tags/swimming"},{"name":"Underwater network","slug":"/blog/tags/underwater-network"},{"name":"Activity recognition","slug":"/blog/tags/activity-recognition"}]}}}]}},"pageContext":{"limit":5,"skip":5,"currentPage":2,"totalPage":2,"param":"*","totalCount":6}}