{"data":{"posts":{"edges":[{"node":{"id":"5c95c78b-1d09-5aec-a118-81210cae45db","excerpt":"Lorem ipsum dolor sit amet, consectetur adipiscing elit, sed do eiusmod tempor incididunt ut labore et dolore magna aliqua. Aenean vel elit scelerisque mauris pellentesque pulvinar pellentesque habitant morbi. At risus viverra adipiscing at in. Vitae et leo duis ut. Sit amet consectetur adipiscing elit duis tristique sollicitudin nibh. Quis vel eros donec ac…","frontmatter":{"title":"How to build this web site","date":"2019-03-08 15:00","preview":null},"fields":{"slug":"/blog/categories/development/posts/2019-03-08-15-00-how-to-build-this-web-site","category":{"name":"Development","slug":"/blog/categories/development"},"tags":[{"name":"React","slug":"/blog/tags/react"},{"name":"GatsbyJs","slug":"/blog/tags/gatsby-js"}]}}},{"node":{"id":"930fe400-6f39-56a4-b625-220d412fa5af","excerpt":"Lorem ipsum dolor sit amet, consectetur adipiscing elit, sed do eiusmod tempor incididunt ut labore et dolore magna aliqua. Aenean vel elit scelerisque mauris pellentesque pulvinar pellentesque habitant morbi. At risus viverra adipiscing at in. Vitae et leo duis ut. Sit amet consectetur adipiscing elit duis tristique sollicitudin nibh. Quis vel eros donec ac…","frontmatter":{"title":"Welcome to my web site","date":"2019-03-07 19:56","preview":null},"fields":{"slug":"/blog/categories/notice/posts/2019-03-07-19-56-welcome-to-my-web-site","category":{"name":"Notice","slug":"/blog/categories/notice"},"tags":[{"name":"Misc.","slug":"/blog/tags/misc"}]}}},{"node":{"id":"bee0df4a-0408-5c14-89f2-a5673b43cd72","excerpt":"Lorem ipsum dolor sit amet, consectetur adipiscing elit, sed do eiusmod tempor incididunt ut labore et dolore magna aliqua. Aenean vel elit scelerisque mauris pellentesque pulvinar pellentesque habitant morbi. At risus viverra adipiscing at in. Vitae et leo duis ut. Sit amet consectetur adipiscing elit duis tristique sollicitudin nibh. Quis vel eros donec ac…","frontmatter":{"title":"Exploring user experiences for active workstations","date":"2015-06-01T00:00:00.000Z","preview":{"childImageSharp":{"resize":{"src":"/static/d0de286368f120df3a49380c2aa4e859/d2f31/Choi2016Exploring.jpg"}}}},"fields":{"slug":"/blog/categories/research/posts/2015-06-01-00-00-exploring-user-experiences-for-active-workstations","category":{"name":"Research","slug":"/blog/categories/research"},"tags":[{"name":"Active workstation","slug":"/blog/tags/active-workstation"},{"name":"Under-desk elliptical trainer","slug":"/blog/tags/under-desk-elliptical-trainer"},{"name":"Office furniture","slug":"/blog/tags/office-furniture"}]}}},{"node":{"id":"58754b54-2f22-5e1c-a7f2-d45c25de4977","excerpt":"Lorem ipsum dolor sit amet, consectetur adipiscing elit, sed do eiusmod tempor incididunt ut labore et dolore magna aliqua. Aenean vel elit scelerisque mauris pellentesque pulvinar pellentesque habitant morbi. At risus viverra adipiscing at in. Vitae et leo duis ut. Sit amet consectetur adipiscing elit duis tristique sollicitudin nibh. Quis vel eros donec ac…","frontmatter":{"title":"Developing multi-player exertion games for group fitness swimming","date":"2014-04-01T00:00:00.000Z","preview":{"childImageSharp":{"resize":{"src":"/static/754c79c0fd44c81008ef49b845e20989/799a8/Choi2016SwimTrain.png"}}}},"fields":{"slug":"/blog/categories/research/posts/2014-04-01-00-00-developing-multi-player-exertion-games-for-group-fitness-swimming","category":{"name":"Research","slug":"/blog/categories/research"},"tags":[{"name":"Exergame","slug":"/blog/tags/exergame"},{"name":"Swimming","slug":"/blog/tags/swimming"},{"name":"Group fitness","slug":"/blog/tags/group-fitness"}]}}},{"node":{"id":"5f186ab4-c39d-5e39-89c9-e692ff116141","excerpt":"Motivation Lorem ipsum dolor sit amet, consectetur adipiscing elit, sed do eiusmod tempor incididunt ut labore et dolore magna aliqua. Aenean vel elit scelerisque mauris pellentesque pulvinar pellentesque habitant morbi. At risus viverra adipiscing at in. Vitae et leo duis ut. Sit amet consectetur adipiscing elit duis tristique sollicitudin nibh. Quis vel…","frontmatter":{"title":"Developing multi-player exertion games for underwater environment","date":"2013-03-01T00:00:00.000Z","preview":{"childImageSharp":{"resize":{"src":"/static/33e726198e85811577a6b2cd963642b2/799a8/Choi2014MobyDick.png"}}}},"fields":{"slug":"/blog/categories/research/posts/2013-03-01-00-00-developing-multi-player-exertion-games-for-underwater-environment","category":{"name":"Research","slug":"/blog/categories/research"},"tags":[{"name":"Exergame","slug":"/blog/tags/exergame"},{"name":"Swimming","slug":"/blog/tags/swimming"},{"name":"Underwater network","slug":"/blog/tags/underwater-network"},{"name":"Activity recognition","slug":"/blog/tags/activity-recognition"}]}}}]}},"pageContext":{"limit":5,"skip":0,"currentPage":1,"totalPage":2,"param":"*","totalCount":6}}